{
    "name": "",
    "namePrefix": "New Super Mario Bros. - ",
    "nameSuffix": "",
    "size": "",
    "type": "Song",
    "samples": "Many",
    "source": "Port",
    "duration": "",
    "featured": false,
    "description": "Part of The New Super Mario Bros. Soundtrack. Please give credit if used.\n\n[collapse=Original Description]The New Super Mario Bros. Soundtrack. As more songs are ported, more will be added. Currently contains:\n\n-Bowser Jr.'s Castle\n-Castle (original and alternative version)\n-Flowing Lava\n-Mushroom Waltz\n-Underground\n-Walking The Plains\n\n\nCurrently doesn't contain:\n\n-The rest of the songs\n-Support for use of global songs and global samples\n\nPlease give credit if used.\n\nChange Log:\n\n7-6-19\nRenamed the songs accordingly. Added Flowing Lava as well as a port of Castle using the game's samples.\n\n8-1-18\nRedid every song minus Course Clear and Star Power (these need to be redone, if you're interested in them download them in version history). Added Fortress onto list. Credit to musicalman for making the samples (big thanks).[/collapse]",
    "authors": "22776",
    "tags": "",
    "notes": "",
    "skipModeration": true
}
