{
    "name": "",
    "namePrefix": "",
    "nameSuffix": "",
    "size": "",
    "type": "",
    "samples": "",
    "source": "",
    "duration": "",
    "featured": false,
    "description": "",
    "authors": "",
    "tags": "",
    "notes": "",
    "skipModeration": false
}
